{
  "swagger": "2.0",
  "info": {
    "title": "CRM 2.0 API",
    "description": "Private API of MHD Enterprises, interactive with internal database. It's used to handle portal and the new CRM interactions.",
    "version": "1.0.0"
  },
  "host": "localhost:3001",
  "basePath": "/",
  "tags": [],
  "schemes": [
    "http"
  ],
  "consumes": [],
  "produces": [],
  "paths": {
    "/*": {
      "get": {
        "tags": [],
        "description": "",
        "parameters": [],
        "responses": {}
      }
    },
    "/closeConnection": {
      "post": {
        "tags": [],
        "description": "",
        "parameters": [],
        "responses": {}
      }
    },
    "/getWorkOrderList": {
      "post": {
        "tags": [],
        "description": "",
        "parameters": [],
        "responses": {
          "200": {
            "description": "OK"
          },
          "405": {
            "description": "Method Not Allowed"
          }
        }
      }
    },
    "/getNotesByWorkOrderID": {
      "post": {
        "tags": [],
        "description": "",
        "parameters": [
          {
            "name": "obj",
            "in": "body",
            "schema": {
              "type": "object",
              "properties": {
                "work_order_id": {
                  "example": "any"
                }
              }
            }
          }
        ],
        "responses": {
          "200": {
            "description": "OK"
          },
          "400": {
            "description": "Bad Request"
          },
          "405": {
            "description": "Method Not Allowed"
          }
        }
      }
    },
    "/getWorkOrder": {
      "post": {
        "tags": [],
        "description": "",
        "parameters": [
          {
            "name": "obj",
            "in": "body",
            "schema": {
              "type": "object",
              "properties": {
                "po_sr": {
                  "example": "any"
                }
              }
            }
          }
        ],
        "responses": {
          "200": {
            "description": "OK"
          },
          "404": {
            "description": "Not Found"
          },
          "405": {
            "description": "Method Not Allowed"
          }
        }
      }
    },
    "/addNote": {
      "post": {
        "tags": [],
        "description": "",
        "parameters": [
          {
            "name": "obj",
            "in": "body",
            "schema": {
              "type": "object",
              "properties": {
                "username": {
                  "example": "any"
                },
                "note_description": {
                  "example": "any"
                },
                "wo_id": {
                  "example": "any"
                }
              }
            }
          }
        ],
        "responses": {
          "200": {
            "description": "OK"
          },
          "400": {
            "description": "Bad Request"
          }
        }
      }
    },
    "/putSalesOrderButtonBack": {
      "post": {
        "tags": [],
        "description": "",
        "parameters": [
          {
            "name": "obj",
            "in": "body",
            "schema": {
              "type": "object",
              "properties": {
                "id": {
                  "example": "any"
                }
              }
            }
          }
        ],
        "responses": {
          "200": {
            "description": "OK"
          },
          "400": {
            "description": "Bad Request"
          }
        }
      }
    },
    "/loginUser": {
      "post": {
        "tags": [],
        "description": "",
        "parameters": [
          {
            "name": "obj",
            "in": "body",
            "schema": {
              "type": "object",
              "properties": {
                "userId": {
                  "example": "any"
                },
                "password": {
                  "example": "any"
                }
              }
            }
          }
        ],
        "responses": {
          "200": {
            "description": "OK"
          },
          "404": {
            "description": "Not Found"
          },
          "405": {
            "description": "Method Not Allowed"
          }
        }
      }
    },
    "/dealerList": {
      "post": {
        "tags": [],
        "description": "",
        "parameters": [],
        "responses": {
          "200": {
            "description": "OK"
          },
          "405": {
            "description": "Method Not Allowed"
          }
        }
      }
    },
    "/editCustomerUnit": {
      "post": {
        "tags": [],
        "description": "",
        "parameters": [
          {
            "name": "obj",
            "in": "body",
            "schema": {
              "type": "object",
              "properties": {
                "id": {
                  "example": "any"
                },
                "price": {
                  "example": "any"
                },
                "threshold": {
                  "example": "any"
                },
                "mfg": {
                  "example": "any"
                },
                "part": {
                  "example": "any"
                },
                "serial_number": {
                  "example": "any"
                },
                "model": {
                  "example": "any"
                },
                "cpu_model": {
                  "example": "any"
                },
                "hard_drive": {
                  "example": "any"
                },
                "ssd_value": {
                  "example": "any"
                },
                "ram": {
                  "example": "any"
                },
                "lcd_size": {
                  "example": "any"
                },
                "touch_screen": {
                  "example": "any"
                },
                "has_data_plan": {
                  "example": "any"
                },
                "extra_information": {
                  "example": "any"
                },
                "desktop": {
                  "example": "any"
                },
                "tablet": {
                  "example": "any"
                },
                "username": {
                  "example": "any"
                }
              }
            }
          }
        ],
        "responses": {
          "200": {
            "description": "OK"
          },
          "400": {
            "description": "Bad Request"
          }
        }
      }
    },
    "/getClosingReason": {
      "post": {
        "tags": [],
        "description": "",
        "parameters": [],
        "responses": {
          "200": {
            "description": "OK"
          },
          "400": {
            "description": "Bad Request"
          }
        }
      }
    },
    "/closeWorkOrder": {
      "post": {
        "tags": [],
        "description": "",
        "parameters": [
          {
            "name": "obj",
            "in": "body",
            "schema": {
              "type": "object",
              "properties": {
                "id": {
                  "example": "any"
                },
                "closing_reason": {
                  "example": "any"
                },
                "wo_sub_status_code": {
                  "example": "any"
                },
                "username": {
                  "example": "any"
                },
                "closing_reason_note": {
                  "example": "any"
                },
                "dealer": {
                  "example": "any"
                },
                "last_name": {
                  "example": "any"
                },
                "po_sr": {
                  "example": "any"
                },
                "work_order_id": {
                  "example": "any"
                },
                "rma": {
                  "example": "any"
                }
              }
            }
          }
        ],
        "responses": {
          "200": {
            "description": "OK"
          },
          "400": {
            "description": "Bad Request"
          }
        }
      }
    },
    "/getCustomerInformation": {
      "post": {
        "tags": [],
        "description": "",
        "parameters": [
          {
            "name": "obj",
            "in": "body",
            "schema": {
              "type": "object",
              "properties": {
                "customer_id": {
                  "example": "any"
                }
              }
            }
          }
        ],
        "responses": {
          "200": {
            "description": "OK"
          },
          "500": {
            "description": "Internal Server Error"
          }
        }
      }
    },
    "/portalLogin": {
      "post": {
        "tags": [],
        "description": "",
        "parameters": [
          {
            "name": "obj",
            "in": "body",
            "schema": {
              "type": "object",
              "properties": {
                "username": {
                  "example": "any"
                },
                "password": {
                  "example": "any"
                },
                "portal_type": {
                  "example": "any"
                }
              }
            }
          }
        ],
        "responses": {
          "200": {
            "description": "OK"
          },
          "401": {
            "description": "Unauthorized"
          },
          "500": {
            "description": "Internal Server Error"
          }
        }
      }
    },
    "/getReplacementOptions": {
      "post": {
        "tags": [],
        "description": "",
        "parameters": [
          {
            "name": "obj",
            "in": "body",
            "schema": {
              "type": "object",
              "properties": {
                "work_order_id": {
                  "example": "any"
                }
              }
            }
          }
        ],
        "responses": {
          "400": {
            "description": "Bad Request"
          },
          "500": {
            "description": "Internal Server Error"
          }
        }
      }
    },
    "/getSelectedOption": {
      "post": {
        "tags": [],
        "description": "",
        "parameters": [
          {
            "name": "obj",
            "in": "body",
            "schema": {
              "type": "object",
              "properties": {
                "id": {
                  "example": "any"
                }
              }
            }
          }
        ],
        "responses": {
          "400": {
            "description": "Bad Request"
          },
          "500": {
            "description": "Internal Server Error"
          }
        }
      }
    },
    "/getShippingInformation": {
      "post": {
        "tags": [],
        "description": "",
        "parameters": [
          {
            "name": "obj",
            "in": "body",
            "schema": {
              "type": "object",
              "properties": {
                "work_order_number": {
                  "example": "any"
                }
              }
            }
          }
        ],
        "responses": {
          "200": {
            "description": "OK"
          },
          "400": {
            "description": "Bad Request"
          },
          "500": {
            "description": "Internal Server Error"
          }
        }
      }
    },
    "/addVendor": {
      "post": {
        "tags": [],
        "description": "",
        "parameters": [
          {
            "name": "obj",
            "in": "body",
            "schema": {
              "type": "object",
              "properties": {
                "username": {
                  "example": "any"
                },
                "vendorname": {
                  "example": "any"
                }
              }
            }
          }
        ],
        "responses": {
          "200": {
            "description": "OK"
          },
          "400": {
            "description": "Bad Request"
          },
          "500": {
            "description": "Internal Server Error"
          }
        }
      }
    }
  },
  "definitions": {}
}